Level ,Common ,Rare,Epic,Legendary ,Wood_Common ,Wood_Rare,Wood_Epic,Wood_Legendary,NumCommon,NumRare,NumEpic,Legend,Silver_Common ,Silver_Rare,Silver_Epic,Silver_Legendary,NumCommon,NumRare,NumEpic,Legend,Gold_Common,Gold_Rare,Gold_Epic,Gold_Legendary,NumCommon,NumRare,NumEpic,Legend
1&10,1&3&4&5&7&8&13,11&17,18&19,23,100,0,0,0,4&1&2,1&1&1,1&1&1,1&1&1,100,80,20,0,4&1&2,4&1&2,1&1&1,1&1&1,100,100,100,1,4&1&2,4&1&2,1&1&1,1&1&1
11&20,1&2&3&4&5&7&8&13,11&14&17&6,18&19,23,100,0,0,0,4&1&2,1&1&1,1&1&1,1&1&1,100,80,20,0,4&1&2,4&1&2,1&1&1,1&1&1,100,100,100,1,4&1&2,4&1&2,1&1&1,1&1&1
21&30,1&3&2&4&5&7&8&13,11&14&17&6&21,18&19&20&9,23,100,0,0,0,4&1&2,1&1&1,1&1&1,1&1&1,100,80,20,0,4&1&2,4&1&2,1&1&1,1&1&1,100,100,100,1,4&1&2,4&1&2,1&1&1,1&1&1
31&40,1&3&2&4&5&7&8&13,11&14&17&6&21&24,18&19&20&9&22,23,100,0,0,0,4&1&2,1&1&1,1&1&1,1&1&1,100,80,20,0,4&1&2,4&1&2,1&1&1,1&1&1,100,100,100,1,4&1&2,4&1&2,1&1&1,1&1&1
41&50,1&3&2&4&5&7&8&13,11&14&17&6&21&24,18&19&20&9&22,23,100,0,0,0,4&1&2,1&1&1,1&1&1,1&1&1,100,80,20,0,4&1&2,4&1&2,1&1&1,1&1&1,100,100,100,1,4&1&2,4&1&2,1&1&1,1&1&1
51&60,1&3&2&4&5&7&8&13,11&14&17&6&21&24,18&19&20&9&22,23,100,0,0,0,4&1&2,1&1&1,1&1&1,1&1&1,100,80,20,0,4&1&2,4&1&2,1&1&1,1&1&1,100,100,100,1,4&1&2,4&1&2,1&1&1,1&1&1