LevelMap,Common,Rare,Epic,Legendary,RateCommon,RateRare,RateEpic,RateLegend,CostCommon,CostRare,CostEpic,CostLegendary
1&10,1&3&4,14&17&6&11,18&19,0,100,80,5,0,20&30&40&50,80&90&100&110&120,100&120&140&160&200,200&240&280&320
11&20,5&7&8&13,16&6&17,18&19,0,100,80,5,0,20&30&40&50,80&90&100&110&120,100&120&140&160&200,200&240&280&320
21&30,1&3&4&5&7&8&13,21&14&17,20&9,23,100,80,5,0,20&30&40&50,80&90&100&110&120,100&120&140&160&200,200&240&280&320
31&40,1&3&4&5&7&8&13,24&21&14,22&9,23,100,80,5,0,20&30&40&50,80&90&100&110&120,100&120&140&160&200,200&240&280&320
41&50,1&3&4&5&7&8&13,21&24&17,9&20,23,100,80,5,0,20&30&40&50,80&90&100&110&120,100&120&140&160&200,200&240&280&320
51&60,1&3&4&5&7&8&13,21&24&17,9&20,23,100,80,5,0,20&30&40&51,80&90&100&110&121,100&120&140&160&201,200&240&280&321