IdCommon,RateCommon,IdRare,RateRare,IdEpic,RateEpic,IdLegend,RateLegend
1,8&7&6&5,11,8&7&6&5,19,8&7&6&5,23,3&2&3&2
3,7&6&5&4,14,6&5&4&3,0,0,0,0
4,6&5&4&3,17,4&3&2&1,0,0,0,0
5,5&4&3&2,6,3&2&1&0,0,0,0,0
7,4&3&2&1,0,0,0,0,0,0
8,4&3&2&1,0,0,0,0,0,0